[gd_scene load_steps=3 format=2]

[ext_resource path="res://icon.png" type="Texture" id=1]

[sub_resource type="GDScript" id=1]

script/source = "extends Sprite

var FSM_script = preload(\"res://addons/tilde-toolkit/fsm/FSM.gd\")

var _start_pos = Vector2(10, 10)
var FSM

class WaitTransition:
	extends \"res://addons/tilde-toolkit/fsm/Transition.gd\"

	var second_f = null

	func _init(second_f):
		self.second_f = second_f

	func check(from, to):
		if from.fsm.state_time >= second_f:
			return true
		return false

class StateOff:
	extends \"res://addons/tilde-toolkit/fsm/State.gd\"
	func enter(from):
		root.hide()


class StateOn:
	extends \"res://addons/tilde-toolkit/fsm/State.gd\"
	func enter(from):
		root.show()

func _ready():
	prep_fsm()
	set_process(true)

func _process(delta):
	FSM.process(delta)
	
func prep_fsm():
	FSM = FSM_script.new_root(\"Root_FSM\", self)
	
	var state_on = StateOn.new()
	state_on.name = \"state_on\"
	var state_off = StateOff.new()
	state_off.name = \"state_off\"
	
	var wait_trans_a = WaitTransition.new(1.2)
	var wait_trans_b = WaitTransition.new(3)
	
	FSM.add_state(state_off)
	FSM.add_state(state_on)
	state_off.add_transition(\"state_on\", wait_trans_a)
	state_on.add_transition(\"state_off\", wait_trans_b)
	
	FSM.enter(null)
"

[node name="Node2D" type="Node2D" index="0"]

[node name="Sprite" type="Sprite" parent="." index="0"]

position = Vector2( 562.31, 310.58 )
scale = Vector2( 3.80343, 4.1625 )
texture = ExtResource( 1 )
script = SubResource( 1 )


